[
  {
    "searchID": "20200918043111",
    "fareSourceCode": "OHFWWG9jWmIwcTJ1YjZpVmFOS25meDh3Y1dIZTlpUzFIcDNXL24vdC9IUG9yMTNOb1dXZ2NHSm8ySEMvNXd4c3FFMVowS0FyTFlYbm45bnRtT3BnWTFucDY1RVY0Rk8vQW85T2MzV1VhSitDTWhQaXRSRk4xOTlXL0o1d1M2YVhVRDdBdWk2eXJqZnc5aVVyc0NDR3F3PT0=",
    "fareSource": "FBX",
    "pricingOptions": [
      "WebFare"
    ],
    "instantPurchase": true,
    "refundable": "No",
    "tripType": "OneWay",
    "passportMandatory": false,
    "pricing": {
      "baseFare": "114.15",
      "currency": "USD",
      "totalFare": "225.71"
    },
    "baggageInfo": null,
    "itineraries": [
      {
        "segments": [
          {
            "departureAirportCode": "RGN",
            "departureDateTime": "2020-09-19T15:45:00",
            "arrivalAirportCode": "NYU",
            "arrivalDateTime": "2020-09-19T17:50:00",
            "journeyDuration": 125,
            "cabinClassCode": "Y",
            "mealCode": "",
            "marriageGroup": "O",
            "resBookDesigCode": "Y",
            "avlSeats": 9,
            "carrierCode": "H1",
            "carrierName": "H1",
            "operatingCarrierCode": "H1",
            "flightNo": "4852",
            "aircraftCode": "ATR",
            "stopQuantity": 1
          },
          {
            "departureAirportCode": "NYU",
            "departureDateTime": "2020-09-20T08:35:00",
            "arrivalAirportCode": "MDL",
            "arrivalDateTime": "2020-09-20T09:05:00",
            "journeyDuration": 30,
            "cabinClassCode": "Y",
            "mealCode": "",
            "marriageGroup": "O",
            "resBookDesigCode": "Y",
            "avlSeats": 9,
            "carrierCode": "H1",
            "carrierName": "H1",
            "operatingCarrierCode": "H1",
            "flightNo": "4850",
            "aircraftCode": "ATR",
            "stopQuantity": 0
          }
        ]
      }
    ]
  },
  {
    "searchID": "20200918043111",
    "fareSourceCode": "bDJtMmFRM0x0Q2tOM3RSN3dRbUIvRFRnL2NKM0NVVzZ0WHlwQmgvTys5dE1qU1FMUU9GaTdsZkZZejl5UWE0bndiZDVMa3F3YzFmTDAyT2cyeWhyVjdjWjdaN3hBdStSdHZOK2FaQmxPQVJlVjV6ZnRFTlhmUUJsTDN3QkZjM2JuUDdoQkhJSzF6dEZRWUk1bUw4d05nPT0=",
    "fareSource": "FBX",
    "pricingOptions": [
      "WebFare"
    ],
    "instantPurchase": true,
    "refundable": "Yes",
    "tripType": "OneWay",
    "passportMandatory": false,
    "pricing": {
      "baseFare": "227.05",
      "currency": "USD",
      "totalFare": "262.91"
    },
    "baggageInfo": null,
    "itineraries": [
      {
        "segments": [
          {
            "departureAirportCode": "RGN",
            "departureDateTime": "2020-09-19T07:00:00",
            "arrivalAirportCode": "MDL",
            "arrivalDateTime": "2020-09-19T08:35:00",
            "journeyDuration": 95,
            "cabinClassCode": "Y",
            "mealCode": "",
            "marriageGroup": "",
            "resBookDesigCode": "Y",
            "avlSeats": 4,
            "carrierCode": "8M",
            "carrierName": "8M",
            "operatingCarrierCode": "8M",
            "flightNo": "4127",
            "aircraftCode": "AT7",
            "stopQuantity": 0
          }
        ]
      }
    ]
  },
  {
    "searchID": "20200918043111",
    "fareSourceCode": "YVlSbkREQngxN2gyV3IwZ21WcGNiMGViODZrdGZkblpya0hLUTQwNEVGbkRHMmZQd2JJTkZLUnVkSStiNVRDNmMxTGlSeVpkUmRSQ1FldlhJbWUzanJVdHhJYzlmWTJlbHVISHl4cHpPZEdkOGo2elAzUVFpcDNSWUtGUktRVnFxVnNJUmpaNlhTVExtd290YWhKTG1RPT0=",
    "fareSource": "FBX",
    "pricingOptions": [
      "WebFare"
    ],
    "instantPurchase": true,
    "refundable": "Yes",
    "tripType": "OneWay",
    "passportMandatory": false,
    "pricing": {
      "baseFare": "227.05",
      "currency": "USD",
      "totalFare": "262.91"
    },
    "baggageInfo": null,
    "itineraries": [
      {
        "segments": [
          {
            "departureAirportCode": "RGN",
            "departureDateTime": "2020-09-19T07:00:00",
            "arrivalAirportCode": "MDL",
            "arrivalDateTime": "2020-09-19T08:35:00",
            "journeyDuration": 95,
            "cabinClassCode": "Y",
            "mealCode": "",
            "marriageGroup": "",
            "resBookDesigCode": "Y",
            "avlSeats": 4,
            "carrierCode": "8M",
            "carrierName": "8M",
            "operatingCarrierCode": "K7",
            "flightNo": "771",
            "aircraftCode": "AT7",
            "stopQuantity": 0
          }
        ]
      }
    ]
  },
  {
    "searchID": "20200918043111",
    "fareSourceCode": "WTB3WDk3a3Avanc4dUNKTDh4Vnh1b0oxdG1KY1IxSkpTRzRNcEFndnYxZVZ3MStFcUdldmxsUENUVWY0ZFdpZDdvVjBOSFZjcGZmNUlKK205MGVudDFMZmc5THZWbGVHS3BZUWZPYlpQVGFMeWhFcmpuZ1VmMnBSYll1Yjk5alJTbXhYUXpDeTRScmFRSWxKOWczblNRPT0=",
    "fareSource": "FBX",
    "pricingOptions": [
      "WebFare"
    ],
    "instantPurchase": true,
    "refundable": "Yes",
    "tripType": "OneWay",
    "passportMandatory": false,
    "pricing": {
      "baseFare": "227.05",
      "currency": "USD",
      "totalFare": "262.91"
    },
    "baggageInfo": null,
    "itineraries": [
      {
        "segments": [
          {
            "departureAirportCode": "RGN",
            "departureDateTime": "2020-09-19T11:30:00",
            "arrivalAirportCode": "MDL",
            "arrivalDateTime": "2020-09-19T13:05:00",
            "journeyDuration": 95,
            "cabinClassCode": "Y",
            "mealCode": "",
            "marriageGroup": "",
            "resBookDesigCode": "Y",
            "avlSeats": 4,
            "carrierCode": "8M",
            "carrierName": "8M",
            "operatingCarrierCode": "K7",
            "flightNo": "226",
            "aircraftCode": "AT7",
            "stopQuantity": 0
          }
        ]
      }
    ]
  },
  {
    "searchID": "20200918043111",
    "fareSourceCode": "ODZBMU9MVmtsVW8vRU1HTXk4MUJmSlIzQStybmFUN3pieldCMFZFMmdhM0hjejBHS3J4YnFoSXlzcE9wU3hab0pabDhTa1E3ZFlhbDBiY1YrS3cxYmVYaUx6cHVHQ3ZxdHV4RzBUaG55VGRMc3NNMmNiSVpXSUtmL2FTTjg0Mk9kRG5LUSsrV25wdGhpRkh4UFFsNW9BPT0=",
    "fareSource": "FBX",
    "pricingOptions": [
      "WebFare"
    ],
    "instantPurchase": true,
    "refundable": "Yes",
    "tripType": "OneWay",
    "passportMandatory": false,
    "pricing": {
      "baseFare": "143.92",
      "currency": "USD",
      "totalFare": "320.74"
    },
    "baggageInfo": null,
    "itineraries": [
      {
        "segments": [
          {
            "departureAirportCode": "RGN",
            "departureDateTime": "2020-09-19T10:55:00",
            "arrivalAirportCode": "KMG",
            "arrivalDateTime": "2020-09-19T14:45:00",
            "journeyDuration": 140,
            "cabinClassCode": "Y",
            "mealCode": "",
            "marriageGroup": "O",
            "resBookDesigCode": "Z",
            "avlSeats": 9,
            "carrierCode": "MU",
            "carrierName": "MU",
            "operatingCarrierCode": "MU",
            "flightNo": "2580",
            "aircraftCode": "738",
            "stopQuantity": 0
          },
          {
            "departureAirportCode": "KMG",
            "departureDateTime": "2020-09-20T14:25:00",
            "arrivalAirportCode": "MDL",
            "arrivalDateTime": "2020-09-20T14:40:00",
            "journeyDuration": 105,
            "cabinClassCode": "Y",
            "mealCode": "",
            "marriageGroup": "I",
            "resBookDesigCode": "Z",
            "avlSeats": 9,
            "carrierCode": "MU",
            "carrierName": "MU",
            "operatingCarrierCode": "MU",
            "flightNo": "2029",
            "aircraftCode": "738",
            "stopQuantity": 0
          }
        ]
      }
    ]
  },
  {
    "searchID": "20200918043111",
    "fareSourceCode": "T0xhRFJQckFFNlVvSjhndGZ6TnlmdjRQSHJaNG9STWhNa1FQQXNpUmliNDFBNEwxa20wZzNUYTlZRVlnelBSdHF6OW5sUU9DMEE4YkNrZVpnMEszR2hMYTJjZzNWdVkzODFUNEZna05GQmtPV2Jpdlc4SUtsRTFNdG11allOSnFEY2JOeC9rMDZRTUtpcXRDQ0xEU1FRPT0=",
    "fareSource": "FBX",
    "pricingOptions": [
      "WebFare"
    ],
    "instantPurchase": true,
    "refundable": "Yes",
    "tripType": "OneWay",
    "passportMandatory": false,
    "pricing": {
      "baseFare": "143.92",
      "currency": "USD",
      "totalFare": "320.74"
    },
    "baggageInfo": null,
    "itineraries": [
      {
        "segments": [
          {
            "departureAirportCode": "RGN",
            "departureDateTime": "2020-09-19T10:55:00",
            "arrivalAirportCode": "KMG",
            "arrivalDateTime": "2020-09-19T14:45:00",
            "journeyDuration": 140,
            "cabinClassCode": "Y",
            "mealCode": "",
            "marriageGroup": "O",
            "resBookDesigCode": "Z",
            "avlSeats": 9,
            "carrierCode": "MU",
            "carrierName": "MU",
            "operatingCarrierCode": "MU",
            "flightNo": "2580",
            "aircraftCode": "738",
            "stopQuantity": 0
          },
          {
            "departureAirportCode": "KMG",
            "departureDateTime": "2020-09-20T09:20:00",
            "arrivalAirportCode": "MDL",
            "arrivalDateTime": "2020-09-20T09:35:00",
            "journeyDuration": 105,
            "cabinClassCode": "Y",
            "mealCode": "",
            "marriageGroup": "I",
            "resBookDesigCode": "Z",
            "avlSeats": 9,
            "carrierCode": "MU",
            "carrierName": "MU",
            "operatingCarrierCode": "MU",
            "flightNo": "2567",
            "aircraftCode": "73H",
            "stopQuantity": 0
          }
        ]
      }
    ]
  },
  {
    "searchID": "20200918043111",
    "fareSourceCode": "VlpDdmVMSHJjVU5pd1ZJSEdOQXNEbUFWRkYvSkQzb29pdGovOGkreCt0NUs1THNUU0M5Mkl0Mi9RaVBpcktMaU15NzlpcEZtQ2J1ZHVucnc2QnM2R2dzcmtNa1Z2Z0xvSWhvZnF1VVBNS0RLbWhobGhMb00rOXNLOHFKVlhORUJqWWZrWTMxUmZoSXo5ME9sQm1JTlZBPT0=",
    "fareSource": "FBX",
    "pricingOptions": [
      "WebFare"
    ],
    "instantPurchase": true,
    "refundable": "Yes",
    "tripType": "OneWay",
    "passportMandatory": false,
    "pricing": {
      "baseFare": "143.92",
      "currency": "USD",
      "totalFare": "320.74"
    },
    "baggageInfo": null,
    "itineraries": [
      {
        "segments": [
          {
            "departureAirportCode": "RGN",
            "departureDateTime": "2020-09-19T16:10:00",
            "arrivalAirportCode": "KMG",
            "arrivalDateTime": "2020-09-19T20:15:00",
            "journeyDuration": 155,
            "cabinClassCode": "Y",
            "mealCode": "",
            "marriageGroup": "O",
            "resBookDesigCode": "Z",
            "avlSeats": 9,
            "carrierCode": "MU",
            "carrierName": "MU",
            "operatingCarrierCode": "MU",
            "flightNo": "9750",
            "aircraftCode": "73H",
            "stopQuantity": 0
          },
          {
            "departureAirportCode": "KMG",
            "departureDateTime": "2020-09-20T14:25:00",
            "arrivalAirportCode": "MDL",
            "arrivalDateTime": "2020-09-20T14:40:00",
            "journeyDuration": 105,
            "cabinClassCode": "Y",
            "mealCode": "",
            "marriageGroup": "I",
            "resBookDesigCode": "Z",
            "avlSeats": 9,
            "carrierCode": "MU",
            "carrierName": "MU",
            "operatingCarrierCode": "MU",
            "flightNo": "2029",
            "aircraftCode": "738",
            "stopQuantity": 0
          }
        ]
      }
    ]
  },
  {
    "searchID": "20200918043111",
    "fareSourceCode": "a0pJUWFmd2ZjemZoNnM4bTdyQUV4TlhnOWFIOVdOVDVHMmZlWGRmd0F4T25IdXhoWVAzMkFjNEU0Q3dPV1lTQXlqczVYYUk0UXNPKzhSTHhWRDZTanMxaFdYTDFESGxjS2JoSmhhRFYrSWREUU9YN3NSWlFGcm1vNHNSaThwbmFFUnkxbVdhbkJPUnBJSzlrcTErRVNBPT0=",
    "fareSource": "FBX",
    "pricingOptions": [
      "WebFare"
    ],
    "instantPurchase": true,
    "refundable": "Yes",
    "tripType": "OneWay",
    "passportMandatory": false,
    "pricing": {
      "baseFare": "143.92",
      "currency": "USD",
      "totalFare": "320.74"
    },
    "baggageInfo": null,
    "itineraries": [
      {
        "segments": [
          {
            "departureAirportCode": "RGN",
            "departureDateTime": "2020-09-19T16:10:00",
            "arrivalAirportCode": "KMG",
            "arrivalDateTime": "2020-09-19T20:15:00",
            "journeyDuration": 155,
            "cabinClassCode": "Y",
            "mealCode": "",
            "marriageGroup": "O",
            "resBookDesigCode": "Z",
            "avlSeats": 9,
            "carrierCode": "MU",
            "carrierName": "MU",
            "operatingCarrierCode": "MU",
            "flightNo": "9750",
            "aircraftCode": "73H",
            "stopQuantity": 0
          },
          {
            "departureAirportCode": "KMG",
            "departureDateTime": "2020-09-20T09:20:00",
            "arrivalAirportCode": "MDL",
            "arrivalDateTime": "2020-09-20T09:35:00",
            "journeyDuration": 105,
            "cabinClassCode": "Y",
            "mealCode": "",
            "marriageGroup": "I",
            "resBookDesigCode": "Z",
            "avlSeats": 9,
            "carrierCode": "MU",
            "carrierName": "MU",
            "operatingCarrierCode": "MU",
            "flightNo": "2567",
            "aircraftCode": "73H",
            "stopQuantity": 0
          }
        ]
      }
    ]
  },
  {
    "searchID": "20200918043111",
    "fareSourceCode": "dmxHVzRGaEhwbnpWRnZaSTl3cDQyYlBPa2N0VnJYOGd6aGFLVXp0bEtReDI1RFBrNlZCUkJlblpHazZjTVR3ZG5YRzN4SVBZSlh6NHRRQ0U3ZHlqbVgwbktTV0RGRTlHS0RmTnBzaCtoRXh4Tm0zUUhqL1R3WkVyV0ZoNXNzR1dPMklLbUNDSGczQTIvVFl2QVgyNU1BPT0=",
    "fareSource": "FBX",
    "pricingOptions": [
      "WebFare"
    ],
    "instantPurchase": true,
    "refundable": "Yes",
    "tripType": "OneWay",
    "passportMandatory": false,
    "pricing": {
      "baseFare": "431.62",
      "currency": "USD",
      "totalFare": "498.63"
    },
    "baggageInfo": null,
    "itineraries": [
      {
        "segments": [
          {
            "departureAirportCode": "RGN",
            "departureDateTime": "2020-09-19T14:15:00",
            "arrivalAirportCode": "THL",
            "arrivalDateTime": "2020-09-19T15:55:00",
            "journeyDuration": 100,
            "cabinClassCode": "Y",
            "mealCode": "",
            "marriageGroup": "0",
            "resBookDesigCode": "Y",
            "avlSeats": 4,
            "carrierCode": "8M",
            "carrierName": "8M",
            "operatingCarrierCode": "K7",
            "flightNo": "844",
            "aircraftCode": "AT7",
            "stopQuantity": 0
          },
          {
            "departureAirportCode": "THL",
            "departureDateTime": "2020-09-20T11:55:00",
            "arrivalAirportCode": "MDL",
            "arrivalDateTime": "2020-09-20T13:10:00",
            "journeyDuration": 75,
            "cabinClassCode": "Y",
            "mealCode": "",
            "marriageGroup": "",
            "resBookDesigCode": "Y",
            "avlSeats": 4,
            "carrierCode": "8M",
            "carrierName": "8M",
            "operatingCarrierCode": "8M",
            "flightNo": "4104",
            "aircraftCode": "AT7",
            "stopQuantity": 0
          }
        ]
      }
    ]
  },
  {
    "searchID": "20200918043111",
    "fareSourceCode": "REFlVURURXUrL1pRZ2ZzMnp3VHF5c25SVktDczRMQ09sc0JpVi9XWmUwNVcwTDJtLzZnbGYrdVNGeGdRYjlBM0pLNVNxb250QmZJQUNPd05zL3NhdjhFM01aM3hCNU54U2RRYjlOTE9PbEJKSmNlRXV1REtReW9XV3lyVkJRWGVVbFlhaVNEejRBWDU5S0ZsUTIzOFBRPT0=",
    "fareSource": "FBX",
    "pricingOptions": [
      "WebFare"
    ],
    "instantPurchase": true,
    "refundable": "Yes",
    "tripType": "OneWay",
    "passportMandatory": false,
    "pricing": {
      "baseFare": "431.62",
      "currency": "USD",
      "totalFare": "498.63"
    },
    "baggageInfo": null,
    "itineraries": [
      {
        "segments": [
          {
            "departureAirportCode": "RGN",
            "departureDateTime": "2020-09-19T14:15:00",
            "arrivalAirportCode": "THL",
            "arrivalDateTime": "2020-09-19T15:55:00",
            "journeyDuration": 100,
            "cabinClassCode": "Y",
            "mealCode": "",
            "marriageGroup": "0",
            "resBookDesigCode": "Y",
            "avlSeats": 4,
            "carrierCode": "8M",
            "carrierName": "8M",
            "operatingCarrierCode": "K7",
            "flightNo": "844",
            "aircraftCode": "AT7",
            "stopQuantity": 0
          },
          {
            "departureAirportCode": "THL",
            "departureDateTime": "2020-09-20T11:55:00",
            "arrivalAirportCode": "MDL",
            "arrivalDateTime": "2020-09-20T13:10:00",
            "journeyDuration": 75,
            "cabinClassCode": "Y",
            "mealCode": "",
            "marriageGroup": "",
            "resBookDesigCode": "Y",
            "avlSeats": 4,
            "carrierCode": "8M",
            "carrierName": "8M",
            "operatingCarrierCode": "K7",
            "flightNo": "209",
            "aircraftCode": "AT7",
            "stopQuantity": 0
          }
        ]
      }
    ]
  }
]
